ggextend
…
```r
# without the function
library(magrittr)
library(dplyr)
cars %>%
  mutate(speed_cat = speed > 8) %>%
* group_by(speed_cat)
```
]
 
.panel2-f_geom_line_endpoint_22-auto[

```
# A tibble: 50 x 3
# Groups:   speed_cat [2]
   speed  dist speed_cat
   <dbl> <dbl> <lgl>    
 1     4     2 FALSE    
 2     4    10 FALSE    
 3     7     4 FALSE    
 4     7    22 FALSE    
 5     8    16 FALSE    
 6     9    10 TRUE     
 7    10    18 TRUE     
 8    10    26 TRUE     
 9    10    34 TRUE     
10    11    17 TRUE     
# … with 40 more rows
```
…
### h_geom_prop_in_ts
.panel1-h_geom_prop_in_ts_26-auto[

```r
# do it without function
library(tidyverse)
*gapminder::gapminder
```
]
 
.panel2-h_geom_prop_in_ts_26-auto[

```
# A tibble: 1,704 x 6
   country     continent  year lifeExp      pop gdpPercap
   <fct>       <fct>     <int>   <dbl>    <int>     <dbl>
 1 Afghanistan Asia       1952    28.8  8425333      779.
 2 Afghanistan Asia       1957    30.3  9240934      821.
 3 Afghanistan Asia       1962    32.0 10267083      853.
 4 Afghanistan Asia       1967    34.0 11537966      836.
 5 Afghanistan Asia       1972    36.1 13079460      740.
 6 Afghanistan Asia       1977    38.4 14880372      786.
 7 Afghanistan Asia       1982    39.9 12881816      978.
 8 Afghanistan Asia       1987    40.8 13867957      852.
 9 Afghanistan Asia       1992    41.7 16317921      649.
10 Afghanistan Asia       1997    41.8 22227415      635.
# … with 1,694 more rows
```
…
### h_geom_prop_in_ts
.panel1-h_geom_prop_in_ts_26-auto[

```r
# do it without function
library(tidyverse)
gapminder::gapminder %>%
* mutate(gdp = gdpPercap * pop)
```
]
 
.panel2-h_geom_prop_in_ts_26-auto[

```
# A tibble: 1,704 x 7
   country     continent  year lifeExp      pop gdpPercap          gdp
   <fct>       <fct>     <int>   <dbl>    <int>     <dbl>        <dbl>
 1 Afghanistan Asia       1952    28.8  8425333      779.  6567086330.
 2 Afghanistan Asia       1957    30.3  9240934      821.  7585448670.
 3 Afghanistan Asia       1962    32.0 10267083      853.  8758855797.
 4 Afghanistan Asia       1967    34.0 11537966      836.  9648014150.
 5 Afghanistan Asia       1972    36.1 13079460      740.  9678553274.
 6 Afghanistan Asia       1977    38.4 14880372      786. 11697659231.
 7 Afghanistan Asia       1982    39.9 12881816      978. 12598563401.
 8 Afghanistan Asia       1987    40.8 13867957      852. 11820990309.
 9 Afghanistan Asia       1992    41.7 16317921      649. 10595901589.
10 Afghanistan Asia       1997    41.8 22227415      635. 14121995875.
# … with 1,694 more rows
```
…
```r
# do it without function
library(tidyverse)
gapminder::gapminder %>%
  mutate(gdp = gdpPercap * pop) ->
my_gapminder
*my_gapminder
```
]
 
.panel2-h_geom_prop_in_ts_26-auto[

```
# A tibble: 1,704 x 7
   country     continent  year lifeExp      pop gdpPercap          gdp
   <fct>       <fct>     <int>   <dbl>    <int>     <dbl>        <dbl>
 1 Afghanistan Asia       1952    28.8  8425333      779.  6567086330.
 2 Afghanistan Asia       1957    30.3  9240934      821.  7585448670.
 3 Afghanistan Asia       1962    32.0 10267083      853.  8758855797.
 4 Afghanistan Asia       1967    34.0 11537966      836.  9648014150.
 5 Afghanistan Asia       1972    36.1 13079460      740.  9678553274.
 6 Afghanistan Asia       1977    38.4 14880372      786. 11697659231.
 7 Afghanistan Asia       1982    39.9 12881816      978. 12598563401.
 8 Afghanistan Asia       1987    40.8 13867957      852. 11820990309.
 9 Afghanistan Asia       1992    41.7 16317921      649. 10595901589.
10 Afghanistan Asia       1997    41.8 22227415      635. 14121995875.
# … with 1,694 more rows
```
…
```r
# do it without function
library(tidyverse)
gapminder::gapminder %>%
  mutate(gdp = gdpPercap * pop) ->
my_gapminder
my_gapminder %>%
* group_by(year, continent)
```
]
 
.panel2-h_geom_prop_in_ts_26-auto[

```
# A tibble: 1,704 x 7
# Groups:   year, continent [60]
   country     continent  year lifeExp      pop gdpPercap          gdp
   <fct>       <fct>     <int>   <dbl>    <int>     <dbl>        <dbl>
 1 Afghanistan Asia       1952    28.8  8425333      779.  6567086330.
 2 Afghanistan Asia       1957    30.3  9240934      821.  7585448670.
 3 Afghanistan Asia       1962    32.0 10267083      853.  8758855797.
 4 Afghanistan Asia       1967    34.0 11537966      836.  9648014150.
 5 Afghanistan Asia       1972    36.1 13079460      740.  9678553274.
 6 Afghanistan Asia       1977    38.4 14880372      786. 11697659231.
 7 Afghanistan Asia       1982    39.9 12881816      978. 12598563401.
 8 Afghanistan Asia       1987    40.8 13867957      852. 11820990309.
 9 Afghanistan Asia       1992    41.7 16317921      649. 10595901589.
10 Afghanistan Asia       1997    41.8 22227415      635. 14121995875.
# … with 1,694 more rows
```
…
.panel2-h_geom_prop_in_ts_26-auto[

```
# A tibble: 60 x 3
# Groups:   year [12]
    year continent     gdp
   <int> <fct>       <dbl>
 1  1952 Africa    3.12e11
 2  1952 Americas  2.94e12
 3  1952 Asia      1.13e12
 4  1952 Europe    2.55e12
 5  1952 Oceania   1.08e11
 6  1957 Africa    3.83e11
 7  1957 Americas  3.52e12
 8  1957 Asia      1.56e12
 9  1957 Europe    3.30e12
10  1957 Oceania   1.34e11
# … with 50 more rows
```
…
.panel2-h_geom_prop_in_ts_26-auto[

```
# A tibble: 60 x 4
# Groups:   year [12]
    year continent     gdp prop_gdp
   <int> <fct>       <dbl>    <dbl>
 1  1952 Africa    3.12e11   0.0443
 2  1952 Americas  2.94e12   0.418 
 3  1952 Asia      1.13e12   0.160 
 4  1952 Europe    2.55e12   0.362 
 5  1952 Oceania   1.08e11   0.0154
 6  1957 Africa    3.83e11   0.0430
 7  1957 Americas  3.52e12   0.396 
 8  1957 Asia      1.56e12   0.175 
 9  1957 Europe    3.30e12   0.371 
10  1957 Oceania   1.34e11   0.0150
# … with 50 more rows
```
…
